%YAML 1.1
%TAG !u! tag:unity3d.com,2011:
--- !u!114 &11400000
MonoBehaviour:
  m_ObjectHideFlags: 0
  m_CorrespondingSourceObject: {fileID: 0}
  m_PrefabInstance: {fileID: 0}
  m_PrefabAsset: {fileID: 0}
  m_GameObject: {fileID: 0}
  m_Enabled: 1
  m_EditorHideFlags: 0
  m_Script: {fileID: 11500000, guid: 414062f9d9180b24eb66136c31c0fe4c, type: 3}
  m_Name: GameplayEndlessUISettings
  m_EditorClassIdentifier: 
  templateUIPrefab: {fileID: 358001020665244776, guid: 8ff5283766dd8614a8838c8489cb528c, type: 3}
  screensToRegister: []
  deactivateScreenGOs: 1
